"CSS stands for Cascading Style Sheet. It is a popular styling language which is used with HTML to design websites. It can also be used with any XML documents including plain XML, SVG, and XUL."
"CSS stands for Cascading Style Sheets. It is a style sheet language which is used to describe the look and formatting of a document written in markup language."
"CSS is a style sheet language used for describing the presentation of a document written in a markup language like HTML."
"CSS stands for Cascading Style Sheets with an emphasis placed on Style. While HTML is used to structure a web document, CSS comes through and specifies your document's style"
"CSS stands for Cascading Style Sheet and is used to style the HTML elements of a webpage."
"CSS is a language for specifying how documents are presented to users how they are styled, laid out, etc."
"CSS is the language for describing the presentation of Web pages, including colors, layout, and fonts. It allows one to adapt the presentation to different types of devices, such as large screens, small screens, or printers."
"CSS is the language for describing the presentation of Web pages, including colors, layout, and fonts. It allows one to adapt the presentation to different types of devices, such as large screens, small screens, or printers. CSS is independent of HTML and can be used with any XML-based markup language."
"Short for cascading style sheets, CSS is a language used to describe reusable styles for presenting documents written in a markup language."
"CSS is the stylesheet language that you style the page with, to tell browsers to change the color, font, layout, and more."