"A style sheet is used to build a consistent, transportable, and well-designed style template. You can add these templates on several different web pages."
"Style sheets enable you to build consistent, transportable, and well-defined style templates. These templates can be linked to several different web pages, making it easy to maintain and change the look and feel of all the web pages within site."
"A Style Sheet is a collection of style rules that that tells a browser how the various styles are to be applied to the HTML tags to  present the document."
"A web style sheet is a form of separation of presentation and content for web design in which the markup of a webpage contains the page's semantic content and structure, but does not define its visual layout or style. Instead, the style is defined in an external style sheet file using a style sheet language such as CSS."
"A web style sheet is a form of separation of presentation and content for web design in which the markup of a webpage contains the page's semantic content and structure, but does not define its visual layout or style."
"Style Sheets describe how documents are presented on screens, in print, or perhaps how they are pronounced."
"A Stylesheet is a command or set of commands used to control the appearance and layout of various elements on webpages, as well as simplify webpage design by avoiding redundancy. Using stylesheets you can set the color and font of text, the size of form textboxes, the margin between various elements on a webpage, and much more."
"A Stylesheet is a command or set of commands used to control the appearance and layout of various elements on webpages, as well as simplify webpage design by avoiding redundancy."
"A stylesheet is a set of commands used to control or alter the appearance of elements on webpages by setting the colour, font, size, padding, margin, and more."