"It is a string that identifies the elements to which a particular declaration apply."
"CSS selectors are used to select the content you want to style. Selectors are the part of CSS rule set. CSS selectors select HTML elements according to its id, class, type, attribute etc."
"A CSS selector is the part of a CSS rule set that actually selects the content you want to style."
"CSS selectors are used to find (or select) the HTML elements you want to style."
"CSS selectors are patterns used to select the element(s) you want to style."
"A CSS selector is the part of a CSS rule set that actually selects the content you want to style."
"A CSS selector is the part of a CSS rule set that actually selects the content you want to style. The types of selectors are Universal Selector, Element Type Selector, ID Selector, Class Selector, Descendant Combinator, Child Combinator, General Sibling Combinator, Adjacent Sibling Combinator, Attribute Selector, Pseudo-class, and Pseudo-element."
"A CSS selector is the part of a CSS rule set that actually selects the content you want to style. The most commonly used selectors are the ID selector, Class selector, and Element type selector."
"In CSS, selectors are used to target the HTML elements on our web pages that we want to style. There are a wide variety of CSS selectors available, allowing for fine-grained precision when selecting elements to style."
"In CSS, selectors are used to target the HTML elements on our web pages that we want to style."
"A CSS selector is the first part of a CSS Rule. It is a pattern of elements and other terms that tell the browser which HTML elements should be selected to have the CSS property values inside the rule applied to them."