"Inline, embedded, linked"
"Inline, embedded, imported"
"Inline styles, embedded styles, import a CSS file"
"Inline styles, embedded CSS, link to a CSS file"
"External CSS, Internal CSS, Inline CSS"
"External, internal, inline styles"