"Server interaction is less, Feedback to the visitors is immediate, Interactivity is high, Interfaces are richer"
"Faster for the end user, extended functionality to web pages, no compilation, easy to debug, platform independent"
"Platform independent, high interactivity, extended functionaly to web pages and interfaces"
"Speed, simplicity, popularity, limits server load, rich interfaces, interoperability"