<svg width="75" height="15" viewBox="0 0 75 15" fill="none" xmlns="http://www.w3.org/2000/svg">
<path d="M3.05273 0.0351562V14H0.464844V0.0351562H3.05273ZM12.877 0.0351562L6.91992 6.54883L13.502 14H9.91797L4.51758 7.47656V5.79688L9.71289 0.0351562H12.877ZM13.7559 10.8066C13.7559 8.76888 15.2402 7.75 18.209 7.75C18.9056 7.75 19.6022 7.8151 20.2988 7.94531V7.17383C20.2988 6.25586 19.638 5.79688 18.3164 5.79688C17.1966 5.79688 15.9531 5.95964 14.5859 6.28516V4.23438C15.9531 3.90885 17.1966 3.74609 18.3164 3.74609C21.3633 3.74609 22.8867 4.8724 22.8867 7.125V14H21.3828L20.4648 13.082C19.5729 13.694 18.5898 14 17.5156 14C15.0091 14 13.7559 12.9355 13.7559 10.8066ZM20.2988 9.70312C19.6478 9.57292 18.9512 9.50781 18.209 9.50781C16.9655 9.50781 16.3438 9.93099 16.3438 10.7773C16.3438 11.6888 16.8646 12.1445 17.9062 12.1445C18.7656 12.1445 19.5632 11.8776 20.2988 11.3438V9.70312ZM25.3379 13.5117V11.3633C26.4772 11.819 27.7923 12.0469 29.2832 12.0469C30.3965 12.0469 30.9531 11.6888 30.9531 10.9727C30.9531 10.2891 30.5788 9.94727 29.8301 9.94727H27.9746C25.8913 9.94727 24.8496 8.92188 24.8496 6.87109C24.8496 4.72266 26.3698 3.64844 29.4102 3.64844C30.6992 3.64844 31.9134 3.84375 33.0527 4.23438V6.38281C31.9134 5.92708 30.6764 5.69922 29.3418 5.69922C27.9421 5.69922 27.2422 6.05729 27.2422 6.77344C27.2422 7.45703 27.6491 7.79883 28.4629 7.79883H30.123C32.4017 7.79883 33.541 8.82422 33.541 10.875C33.541 13.0234 32.0892 14.0977 29.1855 14.0977C27.7598 14.0977 26.4772 13.9023 25.3379 13.5117ZM35.3574 13.5117V11.3633C36.4967 11.819 37.8118 12.0469 39.3027 12.0469C40.416 12.0469 40.9727 11.6888 40.9727 10.9727C40.9727 10.2891 40.5983 9.94727 39.8496 9.94727H37.9941C35.9108 9.94727 34.8691 8.92188 34.8691 6.87109C34.8691 4.72266 36.3893 3.64844 39.4297 3.64844C40.7188 3.64844 41.9329 3.84375 43.0723 4.23438V6.38281C41.9329 5.92708 40.696 5.69922 39.3613 5.69922C37.9616 5.69922 37.2617 6.05729 37.2617 6.77344C37.2617 7.45703 37.6686 7.79883 38.4824 7.79883H40.1426C42.4212 7.79883 43.5605 8.82422 43.5605 10.875C43.5605 13.0234 42.1087 14.0977 39.2051 14.0977C37.7793 14.0977 36.4967 13.9023 35.3574 13.5117ZM49.7031 3.74609C52.8151 3.74609 54.3711 5.33464 54.3711 8.51172C54.3711 8.9349 54.3418 9.35807 54.2832 9.78125H47.4766C47.4766 11.2266 48.5378 11.9492 50.6602 11.9492C51.6953 11.9492 52.7305 11.8516 53.7656 11.6562V13.707C52.8607 13.9023 51.7604 14 50.4648 14C46.7474 14 44.8887 12.252 44.8887 8.75586C44.8887 5.41602 46.4935 3.74609 49.7031 3.74609ZM47.4766 7.98438H51.8516V7.90625C51.8516 6.48698 51.1354 5.77734 49.7031 5.77734C48.3359 5.77734 47.5938 6.51302 47.4766 7.98438ZM56.3145 13.5117V11.3633C57.4538 11.819 58.7689 12.0469 60.2598 12.0469C61.373 12.0469 61.9297 11.6888 61.9297 10.9727C61.9297 10.2891 61.5553 9.94727 60.8066 9.94727H58.9512C56.8678 9.94727 55.8262 8.92188 55.8262 6.87109C55.8262 4.72266 57.3464 3.64844 60.3867 3.64844C61.6758 3.64844 62.89 3.84375 64.0293 4.23438V6.38281C62.89 5.92708 61.653 5.69922 60.3184 5.69922C58.9186 5.69922 58.2188 6.05729 58.2188 6.77344C58.2188 7.45703 58.6257 7.79883 59.4395 7.79883H61.0996C63.3783 7.79883 64.5176 8.82422 64.5176 10.875C64.5176 13.0234 63.0658 14.0977 60.1621 14.0977C58.7363 14.0977 57.4538 13.9023 56.3145 13.5117ZM66.334 13.5117V11.3633C67.4733 11.819 68.7884 12.0469 70.2793 12.0469C71.3926 12.0469 71.9492 11.6888 71.9492 10.9727C71.9492 10.2891 71.5749 9.94727 70.8262 9.94727H68.9707C66.8874 9.94727 65.8457 8.92188 65.8457 6.87109C65.8457 4.72266 67.3659 3.64844 70.4062 3.64844C71.6953 3.64844 72.9095 3.84375 74.0488 4.23438V6.38281C72.9095 5.92708 71.6725 5.69922 70.3379 5.69922C68.9382 5.69922 68.2383 6.05729 68.2383 6.77344C68.2383 7.45703 68.6452 7.79883 69.459 7.79883H71.1191C73.3978 7.79883 74.5371 8.82422 74.5371 10.875C74.5371 13.0234 73.0853 14.0977 70.1816 14.0977C68.7559 14.0977 67.4733 13.9023 66.334 13.5117Z" fill="#366CD6"/>
</svg>
