"Scope creep is defined as uncontrolled or abrupt variations or deviations in the project's scope without changes in other resources of the project. It is due to failure in proper control or miscommunication."
"Scope creep in project management refers to changes, continuous or uncontrolled growth in a project’s scope, at any point after the project begins."
"Scope Creep occurs when the scope, deliverables, or features on a project expand from what was originally set without being accounted for in additional time or budget."
"Scope creep in project management refers to continuous and incremental changes that lead to an uncontrolled and unauthorized growth in the project's scope."
"Scope creep means that you agreed upon an original requirements Scope with your client (etc) and they are now adding more requirements that were not originally agreed upon."
"Scope creep refers to a project that has seen its original goals expand while it's in progress. As the term suggests, scope creep is a subtle process that starts with small adjustments and ends up resulting in projects that take far longer to complete or even fail before they are finished."
"The definition of scope creep is when a project's scope changes, the project work starts to extend, or creep, beyond what was originally agreed."